ENMeval 2.0.0 Vignette • ENMeval
…
#> hinge(bio8):258.775510204082:290 hinge(bio8):263.979591836735:290 
#>                     2.857677e-01                     1.436036e+00 
#> hinge(bio8):274.387755102041:290             categorical(biome):2 
#>                    -2.083530e-01                     1.086907e-01 
#>             categorical(biome):3             categorical(biome):7 
#>                    -3.602166e+00                    -1.007866e+00 
#>             categorical(biome):9            categorical(biome):10 
#>                    -2.389272e+00                    -1.896736e+00 
#>            categorical(biome):13            categorical(biome):14 
#>                     9.849060e-01                    -1.176934e-01
# the enframe function from the tibble package makes this named vector into a 
# more readable table.
library(tibble)
enframe(m1.mx$betas)
#> # A tibble: 32 x 2
#>    name                                    value
#>    <chr>                                   <dbl>
#>  1 bio12                             0.00139    
#>  2 bio16                            -0.000292   
#>  3 bio17                            -0.000292   
#>  4 bio7                             -0.0154     
#>  5 bio8                              0.00881    
#>  6 I(bio16^2)                       -0.000000280
#>  7 I(bio17^2)                       -0.00000475 
#>  8 I(bio6^2)                        -0.0000218  
#>  9 I(bio7^2)                        -0.0000149  
#> 10 hinge(bio1):266.795918367347:289  0.501      
#> # … with 22 more rows
…
