ENMeval 2.0 Vignette • ENMeval
…
#>    hinge(bio6):200.65306122449:238    hinge(bio7):64:105.510204081633 
#>                      -1.231830e-01                      -7.017860e-01 
#>   hinge(bio8):263.979591836735:290               categorical(biome):2 
#>                       2.119202e+00                       1.361552e-02 
#>               categorical(biome):3               categorical(biome):7 
#>                      -3.479780e+00                      -8.398389e-01 
#>               categorical(biome):9              categorical(biome):10 
#>                      -1.558389e+00                      -1.899236e+00 
#>              categorical(biome):13              categorical(biome):14 
#>                       7.187696e-01                      -1.972200e-01
# the enframe function from the tibble package makes this named vector into a 
# more readable table.
library(tibble)
enframe(m1.mx$betas)
#> # A tibble: 28 × 2
#>    name                                     value
#>    <chr>                                    <dbl>
#>  1 bio12                               0.000918  
#>  2 bio6                                0.00589   
#>  3 bio7                               -0.00323   
#>  4 I(bio17^2)                         -0.00000416
#>  5 I(bio7^2)                          -0.0000292 
#>  6 hinge(bio1):229.061224489796:289   -0.709     
#>  7 hinge(bio1):234.510204081633:289   -0.00117   
#>  8 hinge(bio12):4076.63265306122:7682 -0.267     
#>  9 hinge(bio12):1:1255.04081632653     2.90      
#> 10 hinge(bio12):1:2038.81632653061    -0.305     
#> # … with 18 more rows
…
